{"success":true,"message":"Items fetched successfully","data":[{"id":"01d71501-1339-449e-97d7-67f10d245799","title":"सुप्रीम कोर्ट ने डिजिटल सबूतों की वैधता पर बड़ा मार्गदर्शक निर्णय दिया","subHeadline":"कोर्ट ने कहा—“इलेक्ट्रॉनिक रिकॉर्ड तभी मान्य, जब उनकी फोरेंसिक सत्यता स्पष्ट रूप से प्रमाणित हो”","slug":"-article-092432","content":"<p>2025 में डिजिटल सबूतों के बढ़ते उपयोग को देखते हुए सुप्रीम कोर्ट ने एक ऐतिहासिक और व्यावहारिक दिशा-निर्देश जारी किया है, जिसका उद्देश्य भारतीय न्यायिक प्रणाली में इलेक्ट्रॉनिक साक्ष्यों की विश्वसनीयता सुनिश्चित करना है। तकनीक के युग में अपराधों और विवादों का स्वरूप तेजी से बदल रहा है—अब अधिकांश मामलों में चैट रिकॉर्ड, कॉल रिकॉर्डिंग, ईमेल, सामाजिक मीडिया संदेश, ऑनलाइन लेन-देन, डिजिटल दस्तावेज़ और CCTV फुटेज सबसे महत्वपूर्ण साक्ष्य बन चुके हैं। इसी वास्तविकता को ध्यान में रखते हुए सुप्रीम कोर्ट ने स्पष्ट किया कि अदालत में प्रस्तुत कोई भी इलेक्ट्रॉनिक रिकॉर्ड तभी स्वीकार किया जाएगा, जब उसकी <strong>फोरेंसिक प्रामाणिकता (forensic authenticity)</strong> सिद्ध हो और उसकी उत्पत्ति तथा संरचना पर संदेह की कोई गुंजाइश न रहे।</p><p>कोर्ट ने यह भी माना कि डिजिटल डेटा में छेड़छाड़ करना तकनीकी रूप से आसान होता जा रहा है। इसलिए, केवल रिकॉर्ड प्रस्तुत कर देना पर्याप्त नहीं है—बल्कि यह साबित करना भी आवश्यक है कि यह रिकॉर्ड मूल, सही, पूर्ण और अपरिवर्तित है। इसीलिए न्यायालय ने डिजिटल साक्ष्यों के लिए प्रमाणिकता के मानकों को और अधिक कठोर व स्पष्ट बनाया है।</p><h3><strong>मुख्य दिशा-निर्देश</strong></h3><p><strong>1. इलेक्ट्रॉनिक रिकॉर्ड के साथ 65B सर्टिफिकेट अनिवार्य</strong></p><p>सुप्रीम कोर्ट ने पुनः दोहराया कि Evidence Act की धारा 65B के बिना कोई भी डिजिटल दस्तावेज़ “प्राथमिक साक्ष्य” के रूप में स्वीकार नहीं किया जा सकता। प्रमाणपत्र में यह उल्लेख होना चाहिए कि डिजिटल सामग्री कब, कैसे और किस सिस्टम से प्राप्त की गई।</p><p><strong>2. CCTV, ऑडियो व अन्य रिकॉर्डिंग की chain-of-custody अदालत में स्पष्ट की जाएगी</strong></p><p>कोर्ट ने कहा कि जांच एजेंसी को यह बताना होगा कि जिस डिजिटल रिकॉर्ड पर भरोसा किया जा रहा है, वह सबसे पहले किसके कब्जे में था, उसके बाद किस-किस को सौंपा गया, और उसकी सुरक्षा कैसे सुनिश्चित की गई। यदि chain-of-custody पारदर्शी नहीं है तो साक्ष्य पर भरोसा नहीं किया जाएगा।</p><p><strong>3. फोरेंसिक विश्लेषण अनिवार्य — बिना परीक्षण के डिजिटल सबूत स्वीकार नहीं</strong></p><p>अदालत ने निर्देश दिया कि डिजिटल डेटा का वैज्ञानिक परीक्षण आवश्यक है। ऑडियो क्लिप में एडिटिंग हुई या नहीं, वीडियो में tampering हुई या नहीं, चैट या ईमेल में समय-छेड़छाड़ की गई या नहीं — यह सब फोरेंसिक प्रयोगशाला द्वारा प्रमाणित किया जाना चाहिए।</p><p><strong>4. जाँच एजेंसी को डिजिटल डेटा की सुरक्षित प्रतिलिपि (secure copy) संरक्षित करनी होगी</strong></p><p>जांच में डिजिटल सबूतों को बार-बार खोलने, कॉपी करने या भेजने पर उनका metadata बदल सकता है, जिससे साक्ष्य कमजोर हो जाता है। इसलिए एजेंसियों को “read-only मास्टर कॉपी” बनाकर उसे सुरक्षित रखने का निर्देश दिया गया है।</p><h3><strong>फैसले का प्रभाव और महत्व</strong></h3><p>कानूनी विशेषज्ञों का कहना है कि यह फैसला भारतीय न्याय व्यवस्था को तकनीकी रूप से अधिक सक्षम, विश्वसनीय और आधुनिक बनाएगा। बढ़ते साइबर अपराध, ऑनलाइन धोखाधड़ी और डिजिटल लेन-देन के युग में इलेक्ट्रॉनिक साक्ष्य न्याय का मुख्य आधार बन चुके हैं। नया दिशा-निर्देश अदालतों, पुलिस, वकीलों और फोरेंसिक लैब के बीच समन्वय को बेहतर करेगा और गलत या छेड़छाड़ किए गए डिजिटल सबूतों से होने वाले अन्याय को रोकेगा।</p><p>यह निर्णय सिर्फ एक तकनीकी बदलाव नहीं है—यह एक मजबूत संदेश है कि डिजिटल इंडिया में न्याय भी उतना ही डिजिटल-साक्ष्य-सुरक्षित होगा।</p>","readTime":3,"authorId":"692bf00f87df9dbf18f02a69","authorRole":"admin","advocateName":"अद्वैत शर्मा","location":"नई दिल्ली","authors":"अद्वैत शर्मा","thumbnail":"https://sajjad-thumbnails.s3.eu-north-1.amazonaws.com/thumbnails/ad812080-4dda-4e48-8a27-9c7dbdbcdb29.jpeg","status":"published","rejectionReason":null,"isPaywalled":false,"isDeleted":false,"createdAt":"2025-12-09T06:18:03.659Z","updatedAt":"2025-12-09T09:47:39.858Z","category":{"id":"fa611252-da16-4543-a2c3-c2961a377263","name":"Hindi News","slug":"hindi-news","description":null,"parentId":null,"isDeleted":false,"createdAt":"2025-11-24T05:17:12.221Z","updatedAt":"2025-11-24T05:17:12.221Z"},"tags":[{"id":"f603167a-de22-4a44-b103-bdeea026e96c","name":"डिजिटल साक्ष्य","slug":"डिजिटल-साक्ष्य","isDeleted":false,"createdAt":"2025-12-09T06:18:03.637Z","updatedAt":"2025-12-09T06:18:03.637Z"},{"id":"4f3d87ef-bbfb-4798-bfcf-7ad9886e80e3","name":"सुप्रीम कोर्ट","slug":"सुप्रीम-कोर्ट","isDeleted":false,"createdAt":"2025-12-09T06:18:03.637Z","updatedAt":"2025-12-09T06:18:03.637Z"},{"id":"a343e72b-4d13-4f48-b824-9d60064f28e0","name":"आईटी एक्ट फॉरेंसिक रिपोर्ट भारतीय न्यायपालिका","slug":"आईटी-एक्ट-फॉरेंसिक-रिपोर्ट-भारतीय-न्यायपालिका","isDeleted":false,"createdAt":"2025-12-09T06:18:03.637Z","updatedAt":"2025-12-09T06:18:03.637Z"}]}],"meta":{"current_page":1,"per_page":1,"total_items":58,"total_pages":58}}